2017-05-24T16:34:24+03:00 CRIT (2): /images/layout/bg.png  Invalid controller specified (images)
2017-05-24T16:34:33+03:00 CRIT (2): /images/layout/bg.png  Invalid controller specified (images)
2017-05-24T16:34:41+03:00 CRIT (2): /images/layout/bg.png  Invalid controller specified (images)
2017-05-24T16:34:58+03:00 CRIT (2): /images/layout/bg.png  Invalid controller specified (images)
2017-05-24T16:35:06+03:00 CRIT (2): /images/layout/bg.png  Invalid controller specified (images)
2017-05-24T16:36:36+03:00 CRIT (2): /images/layout/bg.png  Invalid controller specified (images)
2017-05-24T16:36:55+03:00 CRIT (2): /images/layout/bg.png  Invalid controller specified (images)
2017-05-24T16:41:02+03:00 CRIT (2): /images/layout/bg.png  Invalid controller specified (images)
2017-05-24T16:44:02+03:00 CRIT (2): /images/layout/bg.png  Invalid controller specified (images)
2017-05-24T16:46:03+03:00 CRIT (2): /images/layout/bg.png  Invalid controller specified (images)
2017-05-24T16:47:09+03:00 CRIT (2): /images/layout/bg.png  Invalid controller specified (images)
2017-05-24T16:51:46+03:00 CRIT (2): /images/layout/bg.png  Invalid controller specified (images)
2017-05-24T16:52:41+03:00 CRIT (2): /images/layout/bg.png  Invalid controller specified (images)
2017-05-24T16:56:09+03:00 CRIT (2): /images/layout/bg.png  Invalid controller specified (images)
2017-05-24T16:56:46+03:00 CRIT (2): /images/layout/bg.png  Invalid controller specified (images)
2017-05-24T16:58:58+03:00 CRIT (2): /images/layout/bg.png  Invalid controller specified (images)
2017-05-24T17:03:07+03:00 CRIT (2): /images/layout/bg.png  Invalid controller specified (images)
2017-05-24T17:04:59+03:00 CRIT (2): /images/layout/bg.png  Invalid controller specified (images)
2017-05-24T17:05:21+03:00 CRIT (2): /images/layout/bg.png  Invalid controller specified (images)
2017-05-24T17:09:14+03:00 CRIT (2): /images/layout/bg.png  Invalid controller specified (images)
2017-05-24T17:09:33+03:00 CRIT (2): /images/layout/bg.png  Invalid controller specified (images)
2017-05-24T17:10:01+03:00 CRIT (2): /images/layout/bg.png  Invalid controller specified (images)
2017-05-24T17:10:11+03:00 CRIT (2): /images/layout/bg.png  Invalid controller specified (images)
2017-05-24T17:12:12+03:00 CRIT (2): /images/layout/bg.png  Invalid controller specified (images)
2017-05-24T17:12:20+03:00 CRIT (2): /images/layout/bg.png  Invalid controller specified (images)
2017-05-24T17:12:53+03:00 CRIT (2): /images/layout/bg.png  Invalid controller specified (images)
2017-05-25T09:39:15+03:00 CRIT (2): /images/layout/bg.png  Invalid controller specified (images)
2017-05-25T09:40:26+03:00 CRIT (2): /images/layout/bg.png  Invalid controller specified (images)
2017-05-25T09:41:21+03:00 CRIT (2): /images/layout/bg.png  Invalid controller specified (images)
2017-05-25T09:43:48+03:00 CRIT (2): /images/layout/bg.png  Invalid controller specified (images)
2017-05-25T09:44:07+03:00 CRIT (2): /images/layout/bg.png  Invalid controller specified (images)
2017-05-25T09:44:26+03:00 CRIT (2): /images/layout/bg.png  Invalid controller specified (images)
2017-05-25T09:46:44+03:00 CRIT (2): /images/layout/bg.png  Invalid controller specified (images)
2017-05-25T09:51:46+03:00 CRIT (2): /images/layout/bg.png  Invalid controller specified (images)
2017-05-25T09:52:33+03:00 CRIT (2): /images/layout/bg.png  Invalid controller specified (images)
2017-05-25T09:52:43+03:00 CRIT (2): /images/layout/bg.png  Invalid controller specified (images)
2017-05-25T09:53:33+03:00 CRIT (2): /images/layout/bg.png  Invalid controller specified (images)
2017-05-25T09:55:33+03:00 CRIT (2): /images/layout/bg.png  Invalid controller specified (images)
2017-05-25T09:56:47+03:00 CRIT (2): /images/layout/bg.png  Invalid controller specified (images)
2017-05-25T09:58:12+03:00 CRIT (2): /images/layout/bg.png  Invalid controller specified (images)
2017-05-25T09:58:49+03:00 CRIT (2): /images/layout/bg.png  Invalid controller specified (images)
2017-05-25T10:02:51+03:00 CRIT (2): /images/layout/bg.png  Invalid controller specified (images)
2017-05-25T10:03:19+03:00 CRIT (2): /images/layout/bg.png  Invalid controller specified (images)
2017-05-25T10:03:53+03:00 CRIT (2): /images/layout/bg.png  Invalid controller specified (images)
2017-05-25T10:05:51+03:00 CRIT (2): /images/layout/bg.png  Invalid controller specified (images)
2017-05-25T10:08:02+03:00 CRIT (2): /images/layout/bg.png  Invalid controller specified (images)
2017-05-25T10:08:24+03:00 CRIT (2): /images/layout/bg.png  Invalid controller specified (images)
2017-05-25T10:09:09+03:00 CRIT (2): /images/layout/bg.png  Invalid controller specified (images)
2017-05-25T10:10:49+03:00 CRIT (2): /images/layout/bg.png  Invalid controller specified (images)
2017-05-25T10:12:25+03:00 CRIT (2): /images/layout/bg.png  Invalid controller specified (images)
2017-05-25T10:15:07+03:00 CRIT (2): /images/layout/bg.png  Invalid controller specified (images)
2017-05-25T14:31:17+03:00 CRIT (2): /images/layout/bg.png  Invalid controller specified (images)
2017-05-25T14:32:20+03:00 CRIT (2): /images/layout/bg.png  Invalid controller specified (images)
2017-05-25T14:32:26+03:00 CRIT (2): /images/layout/bg.png  Invalid controller specified (images)
2017-05-25T14:36:49+03:00 CRIT (2): /images/layout/bg.png  Invalid controller specified (images)
2017-05-25T14:37:06+03:00 CRIT (2): /images/layout/bg.png  Invalid controller specified (images)
2017-05-25T14:38:20+03:00 CRIT (2): /images/layout/bg.png  Invalid controller specified (images)
2017-05-25T14:43:21+03:00 CRIT (2): /images/layout/bg.png  Invalid controller specified (images)
2017-05-25T14:44:01+03:00 CRIT (2): /images/layout/bg.png  Invalid controller specified (images)
2017-05-25T14:45:01+03:00 CRIT (2): /images/layout/bg.png  Invalid controller specified (images)
2017-05-25T14:45:23+03:00 CRIT (2): /images/layout/bg.png  Invalid controller specified (images)
2017-05-25T14:46:29+03:00 CRIT (2): /images/layout/bg.png  Invalid controller specified (images)
2017-05-25T14:47:34+03:00 CRIT (2): /images/layout/bg.png  Invalid controller specified (images)
2017-05-25T14:47:37+03:00 CRIT (2): /images/layout/bg.png  Invalid controller specified (images)
2017-05-25T14:48:14+03:00 CRIT (2): /images/layout/bg.png  Invalid controller specified (images)
2017-05-25T14:49:43+03:00 CRIT (2): /images/layout/bg.png  Invalid controller specified (images)
2017-05-25T14:50:18+03:00 CRIT (2): /images/layout/bg.png  Invalid controller specified (images)
2017-05-25T14:51:23+03:00 CRIT (2): /images/layout/bg.png  Invalid controller specified (images)
2017-05-25T14:53:09+03:00 CRIT (2): /images/layout/bg.png  Invalid controller specified (images)
2017-05-25T14:54:07+03:00 CRIT (2): /images/layout/bg.png  Invalid controller specified (images)
2017-05-25T14:54:19+03:00 CRIT (2): /images/layout/bg.png  Invalid controller specified (images)
2017-05-25T14:54:20+03:00 CRIT (2): /images/layout/bg.png  Invalid controller specified (images)
2017-05-25T14:55:22+03:00 CRIT (2): /images/layout/bg.png  Invalid controller specified (images)
2017-05-25T14:57:05+03:00 CRIT (2): /images/layout/bg.png  Invalid controller specified (images)
2017-05-25T14:58:29+03:00 CRIT (2): /images/layout/bg.png  Invalid controller specified (images)
2017-05-25T14:59:01+03:00 CRIT (2): /images/layout/bg.png  Invalid controller specified (images)
2017-05-25T14:59:15+03:00 CRIT (2): /images/layout/bg.png  Invalid controller specified (images)
2017-05-25T14:59:48+03:00 CRIT (2): /images/layout/bg.png  Invalid controller specified (images)
2017-05-25T15:00:46+03:00 CRIT (2): /images/layout/bg.png  Invalid controller specified (images)
2017-05-25T15:01:02+03:00 CRIT (2): /images/layout/bg.png  Invalid controller specified (images)
2017-05-25T15:01:28+03:00 CRIT (2): /images/layout/bg.png  Invalid controller specified (images)
2017-05-25T15:02:16+03:00 CRIT (2): /images/layout/bg.png  Invalid controller specified (images)
2017-05-25T15:03:10+03:00 CRIT (2): /images/layout/bg.png  Invalid controller specified (images)
2017-05-25T15:03:50+03:00 CRIT (2): /images/layout/bg.png  Invalid controller specified (images)
2017-05-25T15:08:42+03:00 CRIT (2): /images/layout/bg.png  Invalid controller specified (images)
2017-05-25T15:09:36+03:00 CRIT (2): /images/layout/bg.png  Invalid controller specified (images)
2017-05-25T15:09:50+03:00 CRIT (2): /images/layout/bg.png  Invalid controller specified (images)
2017-05-25T15:11:05+03:00 CRIT (2): /images/layout/bg.png  Invalid controller specified (images)
2017-05-25T15:15:31+03:00 CRIT (2): /images/layout/bg.png  Invalid controller specified (images)
2017-05-25T15:19:10+03:00 CRIT (2): /images/layout/bg.png  Invalid controller specified (images)
2017-05-25T15:19:33+03:00 CRIT (2): /images/layout/bg.png  Invalid controller specified (images)
2017-05-25T15:22:12+03:00 CRIT (2): /images/layout/bg.png  Invalid controller specified (images)
2017-05-25T15:22:18+03:00 CRIT (2): /images/layout/bg.png  Invalid controller specified (images)
2017-05-25T15:23:05+03:00 CRIT (2): /images/layout/bg.png  Invalid controller specified (images)
2017-05-25T15:23:17+03:00 CRIT (2): /images/layout/bg.png  Invalid controller specified (images)
2017-05-25T15:23:40+03:00 CRIT (2): /images/layout/bg.png  Invalid controller specified (images)
2017-05-25T15:23:48+03:00 CRIT (2): /images/layout/bg.png  Invalid controller specified (images)
2017-05-25T15:26:54+03:00 CRIT (2): /images/layout/bg.png  Invalid controller specified (images)
2017-05-25T15:29:32+03:00 CRIT (2): /images/layout/bg.png  Invalid controller specified (images)
2017-05-25T15:30:16+03:00 CRIT (2): /images/layout/bg.png  Invalid controller specified (images)
2017-05-25T15:33:03+03:00 CRIT (2): /images/layout/bg.png  Invalid controller specified (images)
2017-05-25T15:34:31+03:00 CRIT (2): /images/layout/bg.png  Invalid controller specified (images)
2017-05-25T15:35:08+03:00 CRIT (2): /images/layout/bg.png  Invalid controller specified (images)
2017-05-25T15:36:23+03:00 CRIT (2): /images/layout/bg.png  Invalid controller specified (images)
2017-05-25T15:36:53+03:00 CRIT (2): /images/layout/bg.png  Invalid controller specified (images)
2017-05-25T15:46:01+03:00 CRIT (2): /images/layout/bg.png  Invalid controller specified (images)
2017-05-25T15:47:26+03:00 CRIT (2): /images/layout/bg.png  Invalid controller specified (images)
2017-05-25T15:48:07+03:00 CRIT (2): /images/layout/bg.png  Invalid controller specified (images)
2017-05-25T15:48:17+03:00 CRIT (2): /images/layout/bg.png  Invalid controller specified (images)
2017-05-25T15:49:38+03:00 CRIT (2): /images/layout/bg.png  Invalid controller specified (images)
2017-05-25T15:51:15+03:00 CRIT (2): /images/layout/bg.png  Invalid controller specified (images)
2017-05-25T15:55:28+03:00 CRIT (2): /images/layout/bg.png  Invalid controller specified (images)
2017-05-25T15:56:53+03:00 CRIT (2): /images/layout/bg.png  Invalid controller specified (images)
2017-05-25T15:58:30+03:00 CRIT (2): /images/layout/bg.png  Invalid controller specified (images)
2017-05-25T15:59:26+03:00 CRIT (2): /images/layout/bg.png  Invalid controller specified (images)
2017-05-25T15:59:37+03:00 CRIT (2): /images/layout/bg.png  Invalid controller specified (images)
2017-05-25T16:03:38+03:00 CRIT (2): /images/layout/bg.png  Invalid controller specified (images)
2017-05-25T16:04:17+03:00 CRIT (2): /images/layout/bg.png  Invalid controller specified (images)
2017-05-25T16:07:35+03:00 CRIT (2): /images/layout/bg.png  Invalid controller specified (images)
2017-05-25T16:08:02+03:00 CRIT (2): /img/shop_model/0/221_170.jpg  Invalid controller specified (img)
2017-05-25T16:08:02+03:00 CRIT (2): /images/layout/bg.png  Invalid controller specified (images)
2017-05-25T16:08:08+03:00 CRIT (2): /img/shop_model/0/221_170.jpg  Invalid controller specified (img)
2017-05-25T16:08:56+03:00 CRIT (2): /img/shop_model/0/221_170.jpg  Invalid controller specified (img)
2017-05-25T16:11:07+03:00 CRIT (2): /images/layout/bg.png  Invalid controller specified (images)
2017-05-25T16:12:49+03:00 CRIT (2): /images/layout/bg.png  Invalid controller specified (images)
2017-05-25T16:13:32+03:00 CRIT (2): /images/layout/bg.png  Invalid controller specified (images)
2017-05-25T16:14:04+03:00 CRIT (2): /images/layout/bg.png  Invalid controller specified (images)
2017-05-25T16:14:28+03:00 CRIT (2): /images/layout/bg.png  Invalid controller specified (images)
2017-05-25T16:16:55+03:00 CRIT (2): /images/layout/bg.png  Invalid controller specified (images)
2017-05-25T16:17:50+03:00 CRIT (2): /images/layout/bg.png  Invalid controller specified (images)
2017-05-25T16:20:04+03:00 CRIT (2): /images/layout/bg.png  Invalid controller specified (images)
2017-05-25T16:20:59+03:00 CRIT (2): /images/layout/bg.png  Invalid controller specified (images)
2017-05-25T16:23:28+03:00 CRIT (2): /images/layout/bg.png  Invalid controller specified (images)
2017-05-25T16:23:51+03:00 CRIT (2): /images/layout/bg.png  Invalid controller specified (images)
2017-05-25T16:24:53+03:00 CRIT (2): /images/layout/bg.png  Invalid controller specified (images)
2017-05-25T16:25:41+03:00 CRIT (2): /images/layout/bg.png  Invalid controller specified (images)
2017-05-25T16:26:53+03:00 CRIT (2): /images/layout/bg.png  Invalid controller specified (images)
2017-05-25T16:27:30+03:00 CRIT (2): /images/layout/bg.png  Invalid controller specified (images)
2017-05-25T16:28:43+03:00 CRIT (2): /images/layout/bg.png  Invalid controller specified (images)
2017-05-25T16:28:53+03:00 CRIT (2): /images/layout/bg.png  Invalid controller specified (images)
2017-05-25T16:29:13+03:00 CRIT (2): /images/layout/bg.png  Invalid controller specified (images)
2017-05-25T16:29:54+03:00 CRIT (2): /images/layout/bg.png  Invalid controller specified (images)
2017-05-25T16:31:40+03:00 CRIT (2): /images/layout/bg.png  Invalid controller specified (images)
2017-05-25T16:33:13+03:00 CRIT (2): /images/layout/bg.png  Invalid controller specified (images)
2017-05-25T16:33:44+03:00 CRIT (2): /images/layout/bg.png  Invalid controller specified (images)
2017-05-25T16:33:55+03:00 CRIT (2): /images/layout/bg.png  Invalid controller specified (images)
2017-05-25T16:35:31+03:00 CRIT (2): /images/layout/bg.png  Invalid controller specified (images)
2017-05-25T16:35:55+03:00 CRIT (2): /images/layout/bg.png  Invalid controller specified (images)
2017-05-25T16:37:27+03:00 CRIT (2): /images/layout/bg.png  Invalid controller specified (images)
2017-05-25T16:38:08+03:00 CRIT (2): /images/layout/bg.png  Invalid controller specified (images)
2017-05-25T16:38:33+03:00 CRIT (2): /images/layout/bg.png  Invalid controller specified (images)
2017-05-25T16:40:01+03:00 CRIT (2): /images/layout/bg.png  Invalid controller specified (images)
2017-05-25T16:40:32+03:00 CRIT (2): /images/layout/bg.png  Invalid controller specified (images)
2017-05-25T16:43:15+03:00 CRIT (2): /images/layout/bg.png  Invalid controller specified (images)
2017-05-25T16:43:34+03:00 CRIT (2): /images/layout/bg.png  Invalid controller specified (images)
2017-05-25T16:44:43+03:00 CRIT (2): /images/layout/bg.png  Invalid controller specified (images)
2017-05-25T16:44:58+03:00 CRIT (2): /images/layout/bg.png  Invalid controller specified (images)
2017-05-25T16:45:40+03:00 CRIT (2): /images/layout/bg.png  Invalid controller specified (images)
2017-05-29T11:17:53+03:00 CRIT (2): /images/layout/bg.png  Invalid controller specified (images)
2017-05-29T13:33:04+03:00 CRIT (2): /images/layout/bg.png  Invalid controller specified (images)
2017-05-29T14:23:57+03:00 CRIT (2): /images/layout/bg.png  Invalid controller specified (images)
2017-05-29T14:25:16+03:00 CRIT (2): /images/layout/bg.png  Invalid controller specified (images)
2017-05-29T14:25:30+03:00 CRIT (2): /images/layout/bg.png  Invalid controller specified (images)
2017-05-29T14:25:46+03:00 CRIT (2): /images/layout/bg.png  Invalid controller specified (images)
2017-05-29T14:27:54+03:00 CRIT (2): /images/layout/bg.png  Invalid controller specified (images)
2017-05-29T14:27:57+03:00 CRIT (2): /images/layout/bg.png  Invalid controller specified (images)
2017-05-29T14:28:00+03:00 CRIT (2): /images/layout/bg.png  Invalid controller specified (images)
2017-05-29T14:28:39+03:00 CRIT (2): /images/layout/bg.png  Invalid controller specified (images)
2017-05-29T14:28:53+03:00 CRIT (2): /images/layout/bg.png  Invalid controller specified (images)
2017-05-29T14:32:22+03:00 CRIT (2): /images/layout/bg.png  Invalid controller specified (images)
2017-05-29T14:33:54+03:00 CRIT (2): /images/layout/bg.png  Invalid controller specified (images)
2017-05-29T14:40:22+03:00 CRIT (2): /images/layout/bg.png  Invalid controller specified (images)
2017-05-29T14:44:10+03:00 CRIT (2): /images/layout/bg.png  Invalid controller specified (images)
2017-05-29T14:44:46+03:00 CRIT (2): /images/layout/bg.png  Invalid controller specified (images)
2017-05-29T14:46:00+03:00 CRIT (2): /images/layout/bg.png  Invalid controller specified (images)
2017-05-29T14:46:56+03:00 CRIT (2): /images/layout/bg.png  Invalid controller specified (images)
2017-05-29T14:47:15+03:00 CRIT (2): /images/layout/bg.png  Invalid controller specified (images)
2017-05-29T14:47:56+03:00 CRIT (2): /images/layout/bg.png  Invalid controller specified (images)
2017-05-29T14:48:41+03:00 CRIT (2): /images/layout/bg.png  Invalid controller specified (images)
2017-05-29T14:49:08+03:00 CRIT (2): /images/layout/bg.png  Invalid controller specified (images)
2017-05-30T16:03:23+03:00 CRIT (2): /undefined  Invalid controller specified (undefined)
2017-05-30T16:05:00+03:00 CRIT (2): /undefined  Invalid controller specified (undefined)
2017-05-30T16:05:39+03:00 CRIT (2): /undefined  Invalid controller specified (undefined)
2017-05-30T16:06:14+03:00 CRIT (2): /undefined  Invalid controller specified (undefined)
2017-05-30T16:06:43+03:00 CRIT (2): /undefined  Invalid controller specified (undefined)
2017-05-30T16:08:17+03:00 CRIT (2): /undefined  Invalid controller specified (undefined)
2017-05-30T16:09:15+03:00 CRIT (2): /undefined  Invalid controller specified (undefined)
2017-05-30T16:10:08+03:00 CRIT (2): /undefined  Invalid controller specified (undefined)
2017-05-30T16:10:30+03:00 CRIT (2): /undefined  Invalid controller specified (undefined)
2017-05-30T16:12:07+03:00 CRIT (2): /undefined  Invalid controller specified (undefined)
2017-05-30T16:13:44+03:00 CRIT (2): /undefined  Invalid controller specified (undefined)
2017-05-30T16:15:15+03:00 CRIT (2): /undefined  Invalid controller specified (undefined)
2017-05-30T16:15:49+03:00 CRIT (2): /undefined  Invalid controller specified (undefined)
2017-05-30T16:17:25+03:00 CRIT (2): /undefined  Invalid controller specified (undefined)
2017-05-30T16:19:05+03:00 CRIT (2): /undefined  Invalid controller specified (undefined)
2017-05-30T16:20:39+03:00 CRIT (2): /undefined  Invalid controller specified (undefined)
2017-05-30T16:22:17+03:00 CRIT (2): /undefined  Invalid controller specified (undefined)
2017-05-30T16:23:53+03:00 CRIT (2): /undefined  Invalid controller specified (undefined)
2017-05-30T16:25:31+03:00 CRIT (2): /undefined  Invalid controller specified (undefined)
2017-05-30T16:27:07+03:00 CRIT (2): /undefined  Invalid controller specified (undefined)
2017-05-30T16:28:45+03:00 CRIT (2): /undefined  Invalid controller specified (undefined)
2017-05-30T16:30:21+03:00 CRIT (2): /undefined  Invalid controller specified (undefined)
2017-05-30T16:31:06+03:00 CRIT (2): /undefined  Invalid controller specified (undefined)
2017-05-30T16:31:30+03:00 CRIT (2): /undefined  Invalid controller specified (undefined)
2017-05-30T16:33:07+03:00 CRIT (2): /undefined  Invalid controller specified (undefined)
2017-05-30T16:33:23+03:00 CRIT (2): /undefined  Invalid controller specified (undefined)
2017-05-30T16:34:09+03:00 CRIT (2): /undefined  Invalid controller specified (undefined)
2017-05-30T16:34:18+03:00 CRIT (2): /undefined  Invalid controller specified (undefined)
2017-05-30T16:34:29+03:00 CRIT (2): /undefined  Invalid controller specified (undefined)
2017-05-30T16:34:38+03:00 CRIT (2): /undefined  Invalid controller specified (undefined)
2017-05-30T16:36:14+03:00 CRIT (2): /undefined  Invalid controller specified (undefined)
2017-05-30T16:36:24+03:00 CRIT (2): /undefined  Invalid controller specified (undefined)
2017-05-30T16:37:59+03:00 CRIT (2): /undefined  Invalid controller specified (undefined)
2017-05-30T16:38:27+03:00 CRIT (2): /undefined  Invalid controller specified (undefined)
2017-05-30T16:40:04+03:00 CRIT (2): /undefined  Invalid controller specified (undefined)
2017-05-30T16:42:10+03:00 CRIT (2): /undefined  Invalid controller specified (undefined)
2017-05-30T16:42:10+03:00 CRIT (2): /undefined  Invalid controller specified (undefined)
2017-05-30T16:42:28+03:00 CRIT (2): /undefined  Invalid controller specified (undefined)
2017-05-30T16:42:37+03:00 CRIT (2): /undefined  Invalid controller specified (undefined)
2017-05-30T16:44:08+03:00 CRIT (2): /undefined  Invalid controller specified (undefined)
2017-05-30T16:45:31+03:00 CRIT (2): /undefined  Invalid controller specified (undefined)
2017-05-30T16:45:32+03:00 CRIT (2): /undefined  Invalid controller specified (undefined)
2017-05-30T16:46:25+03:00 CRIT (2): /undefined  Invalid controller specified (undefined)
2017-05-30T17:55:12+03:00 CRIT (2): /images/layout/bg.png  Invalid controller specified (images)
2017-05-31T13:44:35+03:00 CRIT (2): /images/hamam-girl.png  Invalid controller specified (images)
2017-05-31T13:44:35+03:00 CRIT (2): /images/second-img.png  Invalid controller specified (images)
2017-05-31T13:44:40+03:00 CRIT (2): /images/second-img.png  Invalid controller specified (images)
2017-05-31T13:44:40+03:00 CRIT (2): /images/hamam-girl.png  Invalid controller specified (images)
2017-05-31T13:44:48+03:00 CRIT (2): /images/second-img.png  Invalid controller specified (images)
2017-05-31T13:46:26+03:00 CRIT (2): /images/hamam-girl.png  Invalid controller specified (images)
2017-05-31T13:46:48+03:00 CRIT (2): /images/hamam-girl.png  Invalid controller specified (images)
2017-05-31T13:46:49+03:00 CRIT (2): /images/hamam-girl.png  Invalid controller specified (images)
2017-05-31T13:47:17+03:00 CRIT (2): /images/hamam-girl.png  Invalid controller specified (images)
2017-05-31T13:47:17+03:00 CRIT (2): /images/hamam-girl.png  Invalid controller specified (images)
2017-05-31T13:48:42+03:00 CRIT (2): /images/hamam-girl.png  Invalid controller specified (images)
2017-05-31T13:48:43+03:00 CRIT (2): /images/hamam-girl.png  Invalid controller specified (images)
2017-05-31T14:51:22+03:00 CRIT (2): /images/layout/bg.png  Invalid controller specified (images)
2017-05-31T14:53:07+03:00 CRIT (2): /images/layout/bg.png  Invalid controller specified (images)
2017-05-31T14:54:58+03:00 CRIT (2): /images/layout/bg.png  Invalid controller specified (images)
2017-05-31T14:55:27+03:00 CRIT (2): /images/layout/bg.png  Invalid controller specified (images)
2017-05-31T14:55:32+03:00 CRIT (2): /images/layout/bg.png  Invalid controller specified (images)
2017-05-31T14:55:40+03:00 CRIT (2): /images/layout/bg.png  Invalid controller specified (images)
2017-05-31T14:56:40+03:00 CRIT (2): /images/layout/bg.png  Invalid controller specified (images)
2017-05-31T14:58:29+03:00 CRIT (2): /images/layout/bg.png  Invalid controller specified (images)
2017-05-31T15:00:48+03:00 CRIT (2): /images/layout/bg.png  Invalid controller specified (images)
2017-05-31T15:01:57+03:00 CRIT (2): /images/layout/bg.png  Invalid controller specified (images)
2017-05-31T15:04:22+03:00 CRIT (2): /images/layout/bg.png  Invalid controller specified (images)
2017-05-31T15:04:30+03:00 CRIT (2): /images/layout/bg.png  Invalid controller specified (images)
2017-05-31T15:04:46+03:00 CRIT (2): /images/layout/bg.png  Invalid controller specified (images)
2017-05-31T15:06:09+03:00 CRIT (2): /images/layout/bg.png  Invalid controller specified (images)
2017-05-31T15:08:00+03:00 CRIT (2): /images/layout/bg.png  Invalid controller specified (images)
2017-05-31T15:08:13+03:00 CRIT (2): /images/layout/bg.png  Invalid controller specified (images)
2017-05-31T15:08:22+03:00 CRIT (2): /images/layout/bg.png  Invalid controller specified (images)
2017-05-31T15:15:58+03:00 CRIT (2): /catalog/%3Cimg%20src=  Invalid controller specified (catalog)
2017-05-31T15:15:59+03:00 CRIT (2): /images/layout/bg.png  Invalid controller specified (images)
2017-05-31T15:16:57+03:00 CRIT (2): /images/layout/bg.png  Invalid controller specified (images)
2017-05-31T15:16:57+03:00 CRIT (2): /catalog/%3Cimg%20src=  Invalid controller specified (catalog)
2017-05-31T15:17:03+03:00 CRIT (2): /catalog/%3Cimg%20src=  Invalid controller specified (catalog)
2017-05-31T15:17:33+03:00 CRIT (2): /images/layout/bg.png  Invalid controller specified (images)
2017-05-31T15:17:42+03:00 CRIT (2): /images/layout/bg.png  Invalid controller specified (images)
2017-05-31T15:19:19+03:00 CRIT (2): /images/layout/bg.png  Invalid controller specified (images)
2017-05-31T15:19:24+03:00 CRIT (2): /images/layout/bg.png  Invalid controller specified (images)
2017-05-31T15:20:06+03:00 CRIT (2): /images/layout/bg.png  Invalid controller specified (images)
2017-05-31T15:20:18+03:00 CRIT (2): /images/layout/bg.png  Invalid controller specified (images)
2017-05-31T15:20:26+03:00 CRIT (2): /images/layout/bg.png  Invalid controller specified (images)
2017-05-31T15:22:21+03:00 CRIT (2): /images/layout/bg.png  Invalid controller specified (images)
2017-05-31T15:22:53+03:00 CRIT (2): /images/layout/bg.png  Invalid controller specified (images)
2017-05-31T15:24:18+03:00 CRIT (2): /images/layout/bg.png  Invalid controller specified (images)
2017-05-31T15:25:22+03:00 CRIT (2): /images/layout/bg.png  Invalid controller specified (images)
2017-05-31T15:26:21+03:00 CRIT (2): /images/layout/bg.png  Invalid controller specified (images)
2017-05-31T15:27:15+03:00 CRIT (2): /images/layout/bg.png  Invalid controller specified (images)
2017-05-31T15:27:22+03:00 CRIT (2): /images/layout/bg.png  Invalid controller specified (images)
2017-05-31T15:28:56+03:00 CRIT (2): /images/layout/bg.png  Invalid controller specified (images)
2017-05-31T15:31:00+03:00 CRIT (2): /images/layout/bg.png  Invalid controller specified (images)
2017-05-31T15:32:17+03:00 CRIT (2): /images/layout/bg.png  Invalid controller specified (images)
2017-05-31T15:33:08+03:00 CRIT (2): /images/layout/bg.png  Invalid controller specified (images)
2017-05-31T15:34:29+03:00 CRIT (2): /images/layout/bg.png  Invalid controller specified (images)
2017-05-31T15:35:04+03:00 CRIT (2): /images/layout/bg.png  Invalid controller specified (images)
2017-05-31T15:35:11+03:00 CRIT (2): /images/layout/bg.png  Invalid controller specified (images)
2017-05-31T15:35:58+03:00 CRIT (2): /images/layout/bg.png  Invalid controller specified (images)
2017-05-31T15:36:38+03:00 CRIT (2): /images/layout/bg.png  Invalid controller specified (images)
2017-05-31T15:38:01+03:00 CRIT (2): /images/layout/bg.png  Invalid controller specified (images)
2017-05-31T15:38:29+03:00 CRIT (2): /images/layout/bg.png  Invalid controller specified (images)
2017-05-31T15:40:00+03:00 CRIT (2): /images/layout/bg.png  Invalid controller specified (images)
2017-05-31T15:40:29+03:00 CRIT (2): /images/layout/bg.png  Invalid controller specified (images)
2017-05-31T15:41:00+03:00 CRIT (2): /images/layout/bg.png  Invalid controller specified (images)
2017-05-31T15:41:16+03:00 CRIT (2): /images/layout/bg.png  Invalid controller specified (images)
2017-05-31T15:41:43+03:00 CRIT (2): /images/layout/bg.png  Invalid controller specified (images)
2017-05-31T15:42:00+03:00 CRIT (2): /images/layout/bg.png  Invalid controller specified (images)
2017-05-31T15:42:07+03:00 CRIT (2): /images/layout/bg.png  Invalid controller specified (images)
2017-05-31T15:42:15+03:00 CRIT (2): /images/layout/bg.png  Invalid controller specified (images)
2017-05-31T15:42:20+03:00 CRIT (2): /images/layout/bg.png  Invalid controller specified (images)
2017-05-31T15:43:08+03:00 CRIT (2): /images/layout/bg.png  Invalid controller specified (images)
2017-05-31T15:43:15+03:00 CRIT (2): /images/layout/bg.png  Invalid controller specified (images)
2017-05-31T15:43:50+03:00 CRIT (2): /images/layout/bg.png  Invalid controller specified (images)
2017-05-31T15:44:05+03:00 CRIT (2): /images/layout/bg.png  Invalid controller specified (images)
2017-05-31T15:44:26+03:00 CRIT (2): /images/layout/bg.png  Invalid controller specified (images)
2017-05-31T15:46:03+03:00 CRIT (2): /images/layout/bg.png  Invalid controller specified (images)
2017-05-31T15:48:02+03:00 CRIT (2): /images/layout/bg.png  Invalid controller specified (images)
2017-05-31T15:48:50+03:00 CRIT (2): /images/layout/bg.png  Invalid controller specified (images)
2017-05-31T15:50:21+03:00 CRIT (2): /images/layout/bg.png  Invalid controller specified (images)
2017-05-31T15:51:34+03:00 CRIT (2): /images/layout/bg.png  Invalid controller specified (images)
2017-05-31T15:52:55+03:00 CRIT (2): /images/layout/bg.png  Invalid controller specified (images)
2017-05-31T15:56:11+03:00 CRIT (2): /images/layout/bg.png  Invalid controller specified (images)
2017-05-31T15:57:03+03:00 CRIT (2): /images/layout/bg.png  Invalid controller specified (images)
2017-05-31T15:57:13+03:00 CRIT (2): /images/layout/bg.png  Invalid controller specified (images)
2017-05-31T15:58:12+03:00 CRIT (2): /images/layout/bg.png  Invalid controller specified (images)
2017-05-31T16:04:58+03:00 CRIT (2): /images/layout/bg.png  Invalid controller specified (images)
2017-05-31T16:14:48+03:00 CRIT (2): /images/layout/bg.png  Invalid controller specified (images)
2017-05-31T16:15:09+03:00 CRIT (2): /images/layout/bg.png  Invalid controller specified (images)
2017-05-31T16:16:41+03:00 CRIT (2): /images/layout/bg.png  Invalid controller specified (images)
2017-05-31T16:16:57+03:00 CRIT (2): /images/layout/bg.png  Invalid controller specified (images)
2017-05-31T16:17:13+03:00 CRIT (2): /images/layout/bg.png  Invalid controller specified (images)
2017-05-31T16:17:15+03:00 CRIT (2): /images/layout/bg.png  Invalid controller specified (images)
2017-05-31T16:18:37+03:00 CRIT (2): /images/layout/bg.png  Invalid controller specified (images)
2017-05-31T16:22:05+03:00 CRIT (2): /images/layout/bg.png  Invalid controller specified (images)
2017-05-31T16:23:00+03:00 CRIT (2): /images/layout/bg.png  Invalid controller specified (images)
2017-05-31T16:29:31+03:00 CRIT (2): /compressed/1dcae0e3/arrow-left.svg  Invalid controller specified (compressed)
2017-05-31T16:29:57+03:00 CRIT (2): /compressed/1dcae0e3/arrow-left.svg  Invalid controller specified (compressed)
2017-05-31T16:30:13+03:00 CRIT (2): /compressed/1dcae0e3/arrow-left.svg  Invalid controller specified (compressed)
2017-05-31T16:30:16+03:00 CRIT (2): /compressed/1dcae0e3/arrow-left.svg  Invalid controller specified (compressed)
2017-05-31T16:30:41+03:00 CRIT (2): /compressed/1dcae0e3/arrow-left.svg  Invalid controller specified (compressed)
2017-05-31T16:30:42+03:00 CRIT (2): /compressed/1dcae0e3/arrow-left.svg  Invalid controller specified (compressed)
2017-05-31T16:30:59+03:00 CRIT (2): /compressed/1dcae0e3/arrow-left.svg  Invalid controller specified (compressed)
2017-05-31T16:31:50+03:00 CRIT (2): /compressed/1dcae0e3/arrow-left.svg  Invalid controller specified (compressed)
2017-05-31T16:32:19+03:00 CRIT (2): /compressed/1dcae0e3/arrow-left.svg  Invalid controller specified (compressed)
2017-05-31T16:32:30+03:00 CRIT (2): /compressed/1dcae0e3/arrow-left.svg  Invalid controller specified (compressed)
2017-05-31T17:26:27+03:00 CRIT (2): /images/layout/bg.png  Invalid controller specified (images)
2017-05-31T17:26:43+03:00 CRIT (2): /images/layout/bg.png  Invalid controller specified (images)
2017-05-31T17:26:47+03:00 CRIT (2): /images/layout/bg.png  Invalid controller specified (images)
2017-05-31T17:32:32+03:00 CRIT (2): /images/layout/bg.png  Invalid controller specified (images)
2017-05-31T17:32:51+03:00 CRIT (2): /images/layout/bg.png  Invalid controller specified (images)
2017-05-31T17:33:05+03:00 CRIT (2): /images/layout/bg.png  Invalid controller specified (images)
2017-05-31T17:33:34+03:00 CRIT (2): /images/layout/bg.png  Invalid controller specified (images)
2017-06-01T15:01:51+03:00 CRIT (2): /images/layout/bg.png  Invalid controller specified (images)
2017-06-01T15:02:01+03:00 CRIT (2): /images/layout/bg.png  Invalid controller specified (images)
2017-06-01T15:02:02+03:00 CRIT (2): /images/layout/bg.png  Invalid controller specified (images)
2017-06-01T15:02:09+03:00 CRIT (2): /images/layout/bg.png  Invalid controller specified (images)
2017-06-01T15:02:19+03:00 CRIT (2): /images/layout/bg.png  Invalid controller specified (images)
2017-06-01T17:24:19+03:00 CRIT (2): /images/layout/bg.png  Invalid controller specified (images)
2017-06-02T09:45:08+03:00 CRIT (2): /images/layout/bg.png  Invalid controller specified (images)
2017-06-02T13:15:40+03:00 CRIT (2): /images/layout/bg.png  Invalid controller specified (images)
2017-06-02T14:03:53+03:00 CRIT (2): /images/layout/bg.png  Invalid controller specified (images)
2017-06-02T14:10:21+03:00 CRIT (2): /images/layout/bg.png  Invalid controller specified (images)
2017-06-02T14:11:26+03:00 CRIT (2): /images/layout/bg.png  Invalid controller specified (images)
2017-06-02T14:13:32+03:00 CRIT (2): /images/layout/bg.png  Invalid controller specified (images)
2017-06-02T14:13:37+03:00 CRIT (2): /images/layout/bg.png  Invalid controller specified (images)
2017-06-02T14:22:28+03:00 CRIT (2): /images/layout/bg.png  Invalid controller specified (images)
2017-06-02T14:22:29+03:00 CRIT (2): /images/layout/bg.png  Invalid controller specified (images)
2017-06-02T14:27:33+03:00 CRIT (2): /images/layout/bg.png  Invalid controller specified (images)
2017-06-02T14:27:43+03:00 CRIT (2): /images/layout/bg.png  Invalid controller specified (images)
2017-06-02T14:32:45+03:00 CRIT (2): /images/layout/bg.png  Invalid controller specified (images)
2017-06-02T14:33:59+03:00 CRIT (2): /images/layout/bg.png  Invalid controller specified (images)
2017-06-02T14:38:40+03:00 CRIT (2): /images/layout/bg.png  Invalid controller specified (images)
2017-06-02T14:38:48+03:00 CRIT (2): /images/layout/bg.png  Invalid controller specified (images)
2017-06-02T14:42:33+03:00 CRIT (2): /images/layout/bg.png  Invalid controller specified (images)
2017-06-02T14:43:07+03:00 CRIT (2): /images/layout/bg.png  Invalid controller specified (images)
2017-06-02T14:44:06+03:00 CRIT (2): /images/layout/bg.png  Invalid controller specified (images)
2017-06-02T14:45:01+03:00 CRIT (2): /images/layout/bg.png  Invalid controller specified (images)
2017-06-02T14:45:19+03:00 CRIT (2): /images/layout/bg.png  Invalid controller specified (images)
2017-06-02T14:45:29+03:00 CRIT (2): /images/layout/bg.png  Invalid controller specified (images)
2017-06-02T14:45:45+03:00 CRIT (2): /images/layout/bg.png  Invalid controller specified (images)
2017-06-02T14:46:05+03:00 CRIT (2): /images/layout/bg.png  Invalid controller specified (images)
2017-06-02T14:46:42+03:00 CRIT (2): /images/layout/bg.png  Invalid controller specified (images)
2017-06-02T14:47:46+03:00 CRIT (2): /images/layout/bg.png  Invalid controller specified (images)
2017-06-02T14:48:44+03:00 CRIT (2): /images/layout/bg.png  Invalid controller specified (images)
2017-06-02T14:49:00+03:00 CRIT (2): /images/layout/bg.png  Invalid controller specified (images)
2017-06-02T14:49:01+03:00 CRIT (2): /images/layout/bg.png  Invalid controller specified (images)
2017-06-02T14:50:15+03:00 CRIT (2): /images/layout/bg.png  Invalid controller specified (images)
2017-06-02T14:50:57+03:00 CRIT (2): /images/layout/bg.png  Invalid controller specified (images)
2017-06-02T15:00:46+03:00 CRIT (2): /pera_halat/%3Cimg%20src=  Invalid controller specified (pera_halat)
2017-06-02T15:00:49+03:00 CRIT (2): /images/layout/bg.png  Invalid controller specified (images)
2017-06-02T15:01:53+03:00 CRIT (2): /images/layout/bg.png  Invalid controller specified (images)
2017-06-02T15:05:25+03:00 CRIT (2): /images/layout/bg.png  Invalid controller specified (images)
2017-06-02T15:06:43+03:00 CRIT (2): /images/layout/bg.png  Invalid controller specified (images)
2017-06-02T15:06:45+03:00 CRIT (2): /images/layout/bg.png  Invalid controller specified (images)
2017-06-02T15:06:55+03:00 CRIT (2): /images/layout/bg.png  Invalid controller specified (images)
2017-06-02T15:06:55+03:00 CRIT (2): /images/layout/bg.png  Invalid controller specified (images)
2017-06-02T15:07:03+03:00 CRIT (2): /images/layout/bg.png  Invalid controller specified (images)
2017-06-02T15:07:05+03:00 CRIT (2): /images/layout/bg.png  Invalid controller specified (images)
2017-06-02T15:07:06+03:00 CRIT (2): /images/layout/bg.png  Invalid controller specified (images)
2017-06-02T15:07:47+03:00 CRIT (2): /images/layout/bg.png  Invalid controller specified (images)
2017-06-02T15:08:58+03:00 CRIT (2): /images/layout/bg.png  Invalid controller specified (images)
2017-06-02T15:09:21+03:00 CRIT (2): /images/layout/bg.png  Invalid controller specified (images)
2017-06-02T15:09:56+03:00 CRIT (2): /images/layout/bg.png  Invalid controller specified (images)
2017-06-02T15:09:58+03:00 CRIT (2): /images/layout/bg.png  Invalid controller specified (images)
2017-06-02T15:12:46+03:00 CRIT (2): /images/layout/bg.png  Invalid controller specified (images)
2017-06-02T15:12:52+03:00 CRIT (2): /images/layout/bg.png  Invalid controller specified (images)
2017-06-02T15:13:15+03:00 CRIT (2): /images/layout/bg.png  Invalid controller specified (images)
2017-06-02T15:19:39+03:00 CRIT (2): /images/layout/bg.png  Invalid controller specified (images)
2017-06-02T15:19:45+03:00 CRIT (2): /images/layout/bg.png  Invalid controller specified (images)
2017-06-02T15:19:58+03:00 CRIT (2): /images/layout/bg.png  Invalid controller specified (images)
2017-06-02T15:20:08+03:00 CRIT (2): /images/layout/bg.png  Invalid controller specified (images)
2017-06-02T15:20:25+03:00 CRIT (2): /images/layout/bg.png  Invalid controller specified (images)
2017-06-02T15:21:49+03:00 CRIT (2): /images/layout/bg.png  Invalid controller specified (images)
2017-06-02T15:22:14+03:00 CRIT (2): /images/layout/bg.png  Invalid controller specified (images)
2017-06-02T15:23:41+03:00 CRIT (2): /images/layout/bg.png  Invalid controller specified (images)
2017-06-02T15:23:48+03:00 CRIT (2): /images/layout/bg.png  Invalid controller specified (images)
2017-06-02T15:26:44+03:00 CRIT (2): /images/layout/bg.png  Invalid controller specified (images)
2017-06-02T15:26:52+03:00 CRIT (2): /images/layout/bg.png  Invalid controller specified (images)
2017-06-02T15:27:54+03:00 CRIT (2): /images/layout/bg.png  Invalid controller specified (images)
2017-06-02T15:28:12+03:00 CRIT (2): /images/layout/bg.png  Invalid controller specified (images)
2017-06-02T15:28:15+03:00 CRIT (2): /images/layout/bg.png  Invalid controller specified (images)
2017-06-02T15:28:28+03:00 CRIT (2): /images/layout/bg.png  Invalid controller specified (images)
2017-06-02T15:28:29+03:00 CRIT (2): /images/layout/bg.png  Invalid controller specified (images)
2017-06-02T15:28:50+03:00 CRIT (2): /images/layout/bg.png  Invalid controller specified (images)
2017-06-02T15:29:04+03:00 CRIT (2): /images/layout/bg.png  Invalid controller specified (images)
2017-06-02T15:29:12+03:00 CRIT (2): /images/layout/bg.png  Invalid controller specified (images)
2017-06-02T15:29:23+03:00 CRIT (2): /images/layout/bg.png  Invalid controller specified (images)
2017-06-02T15:29:27+03:00 CRIT (2): /images/layout/bg.png  Invalid controller specified (images)
2017-06-02T15:29:44+03:00 CRIT (2): /images/layout/bg.png  Invalid controller specified (images)
2017-06-02T15:29:48+03:00 CRIT (2): /images/layout/bg.png  Invalid controller specified (images)
2017-06-02T15:30:01+03:00 CRIT (2): /images/layout/bg.png  Invalid controller specified (images)
2017-06-02T15:30:23+03:00 CRIT (2): /images/layout/bg.png  Invalid controller specified (images)
2017-06-02T15:32:37+03:00 CRIT (2): /images/layout/bg.png  Invalid controller specified (images)
2017-06-02T15:32:48+03:00 CRIT (2): /images/layout/bg.png  Invalid controller specified (images)
2017-06-02T15:33:08+03:00 CRIT (2): /images/layout/bg.png  Invalid controller specified (images)
2017-06-02T15:33:47+03:00 CRIT (2): /images/layout/bg.png  Invalid controller specified (images)
2017-06-02T15:35:25+03:00 CRIT (2): /images/layout/bg.png  Invalid controller specified (images)
2017-06-02T15:35:38+03:00 CRIT (2): /images/layout/bg.png  Invalid controller specified (images)
2017-06-02T15:36:49+03:00 CRIT (2): /images/layout/bg.png  Invalid controller specified (images)
2017-06-02T15:36:58+03:00 CRIT (2): /images/layout/bg.png  Invalid controller specified (images)
2017-06-02T15:37:39+03:00 CRIT (2): /images/layout/bg.png  Invalid controller specified (images)
2017-06-02T15:38:25+03:00 CRIT (2): /images/layout/bg.png  Invalid controller specified (images)
2017-06-02T15:38:36+03:00 CRIT (2): /images/layout/bg.png  Invalid controller specified (images)
2017-06-02T15:39:12+03:00 CRIT (2): /images/layout/bg.png  Invalid controller specified (images)
2017-06-02T15:39:13+03:00 CRIT (2): /images/layout/bg.png  Invalid controller specified (images)
2017-06-02T15:39:30+03:00 CRIT (2): /images/layout/bg.png  Invalid controller specified (images)
2017-06-02T15:39:32+03:00 CRIT (2): /images/layout/bg.png  Invalid controller specified (images)
2017-06-02T15:40:15+03:00 CRIT (2): /images/layout/bg.png  Invalid controller specified (images)
2017-06-02T15:40:25+03:00 CRIT (2): /images/layout/bg.png  Invalid controller specified (images)
2017-06-02T15:41:57+03:00 CRIT (2): /images/layout/bg.png  Invalid controller specified (images)
2017-06-02T15:42:25+03:00 CRIT (2): /images/layout/bg.png  Invalid controller specified (images)
2017-06-02T15:43:40+03:00 CRIT (2): /images/layout/bg.png  Invalid controller specified (images)
2017-06-02T15:43:46+03:00 CRIT (2): /images/layout/bg.png  Invalid controller specified (images)
2017-06-02T15:43:58+03:00 CRIT (2): /images/layout/bg.png  Invalid controller specified (images)
2017-06-02T15:44:25+03:00 CRIT (2): /images/layout/bg.png  Invalid controller specified (images)
2017-06-02T15:44:47+03:00 CRIT (2): /images/layout/bg.png  Invalid controller specified (images)
2017-06-02T15:44:58+03:00 CRIT (2): /images/layout/bg.png  Invalid controller specified (images)
2017-06-02T15:46:50+03:00 CRIT (2): /images/layout/bg.png  Invalid controller specified (images)
2017-06-02T15:47:41+03:00 CRIT (2): /images/layout/bg.png  Invalid controller specified (images)
2017-06-02T15:48:08+03:00 CRIT (2): /images/layout/bg.png  Invalid controller specified (images)
2017-06-02T15:48:41+03:00 CRIT (2): /images/layout/bg.png  Invalid controller specified (images)
2017-06-02T15:52:27+03:00 CRIT (2): /images/layout/bg.png  Invalid controller specified (images)
2017-06-02T15:52:29+03:00 CRIT (2): /images/layout/bg.png  Invalid controller specified (images)
2017-06-02T15:53:45+03:00 CRIT (2): /images/layout/bg.png  Invalid controller specified (images)
2017-06-02T15:53:54+03:00 CRIT (2): /images/layout/bg.png  Invalid controller specified (images)
2017-06-02T15:54:47+03:00 CRIT (2): /images/layout/bg.png  Invalid controller specified (images)
2017-06-02T15:55:05+03:00 CRIT (2): /images/layout/bg.png  Invalid controller specified (images)
2017-06-02T15:55:24+03:00 CRIT (2): /images/layout/bg.png  Invalid controller specified (images)
2017-06-02T15:55:27+03:00 CRIT (2): /images/layout/bg.png  Invalid controller specified (images)
2017-06-02T15:55:36+03:00 CRIT (2): /images/layout/bg.png  Invalid controller specified (images)
2017-06-02T15:56:03+03:00 CRIT (2): /images/layout/bg.png  Invalid controller specified (images)
2017-06-02T15:56:11+03:00 CRIT (2): /images/layout/bg.png  Invalid controller specified (images)
2017-06-02T15:56:54+03:00 CRIT (2): /images/layout/bg.png  Invalid controller specified (images)
2017-06-02T15:57:14+03:00 CRIT (2): /images/layout/bg.png  Invalid controller specified (images)
2017-06-02T15:58:35+03:00 CRIT (2): /images/layout/bg.png  Invalid controller specified (images)
2017-06-02T15:58:52+03:00 CRIT (2): /images/layout/bg.png  Invalid controller specified (images)
2017-06-02T16:01:25+03:00 CRIT (2): /images/layout/bg.png  Invalid controller specified (images)
2017-06-02T16:01:31+03:00 CRIT (2): /images/layout/bg.png  Invalid controller specified (images)
2017-06-02T16:02:21+03:00 CRIT (2): /images/layout/bg.png  Invalid controller specified (images)
2017-06-02T16:02:23+03:00 CRIT (2): /images/layout/bg.png  Invalid controller specified (images)
2017-06-02T16:02:39+03:00 CRIT (2): /images/layout/bg.png  Invalid controller specified (images)
2017-06-02T16:03:16+03:00 CRIT (2): /images/layout/bg.png  Invalid controller specified (images)
2017-06-02T16:03:47+03:00 CRIT (2): /images/layout/bg.png  Invalid controller specified (images)
2017-06-02T16:04:36+03:00 CRIT (2): /images/layout/bg.png  Invalid controller specified (images)
2017-06-02T16:05:28+03:00 CRIT (2): /images/layout/bg.png  Invalid controller specified (images)
2017-06-02T16:07:11+03:00 CRIT (2): /images/layout/bg.png  Invalid controller specified (images)
2017-06-02T16:07:19+03:00 CRIT (2): /images/layout/bg.png  Invalid controller specified (images)
2017-06-02T16:07:30+03:00 CRIT (2): /images/layout/bg.png  Invalid controller specified (images)
2017-06-02T16:07:43+03:00 CRIT (2): /images/layout/bg.png  Invalid controller specified (images)
2017-06-02T16:08:00+03:00 CRIT (2): /images/layout/bg.png  Invalid controller specified (images)
2017-06-02T16:09:24+03:00 CRIT (2): /images/layout/bg.png  Invalid controller specified (images)
2017-06-02T16:10:08+03:00 CRIT (2): /images/layout/bg.png  Invalid controller specified (images)
2017-06-02T16:10:54+03:00 CRIT (2): /images/layout/bg.png  Invalid controller specified (images)
2017-06-02T16:11:40+03:00 CRIT (2): /images/layout/bg.png  Invalid controller specified (images)
2017-06-02T16:11:55+03:00 CRIT (2): /images/layout/bg.png  Invalid controller specified (images)
2017-06-02T16:13:24+03:00 CRIT (2): /images/layout/bg.png  Invalid controller specified (images)
2017-06-02T16:13:25+03:00 CRIT (2): /images/layout/bg.png  Invalid controller specified (images)
2017-06-02T16:14:16+03:00 CRIT (2): /images/layout/bg.png  Invalid controller specified (images)
2017-06-02T16:17:18+03:00 CRIT (2): /images/layout/bg.png  Invalid controller specified (images)
2017-06-02T16:17:26+03:00 CRIT (2): /images/layout/bg.png  Invalid controller specified (images)
2017-06-02T16:17:57+03:00 CRIT (2): /images/layout/bg.png  Invalid controller specified (images)
2017-06-02T16:19:58+03:00 CRIT (2): /images/layout/bg.png  Invalid controller specified (images)
2017-06-02T16:24:58+03:00 CRIT (2): /images/layout/bg.png  Invalid controller specified (images)
2017-06-02T16:25:08+03:00 CRIT (2): /images/layout/bg.png  Invalid controller specified (images)
2017-06-02T16:26:23+03:00 CRIT (2): /images/layout/bg.png  Invalid controller specified (images)
2017-06-02T16:26:42+03:00 CRIT (2): /images/layout/bg.png  Invalid controller specified (images)
2017-06-02T16:26:55+03:00 CRIT (2): /images/layout/bg.png  Invalid controller specified (images)
2017-06-02T16:27:59+03:00 CRIT (2): /images/layout/bg.png  Invalid controller specified (images)
2017-06-02T16:28:07+03:00 CRIT (2): /images/layout/bg.png  Invalid controller specified (images)
2017-06-02T16:28:26+03:00 CRIT (2): /images/layout/bg.png  Invalid controller specified (images)
2017-06-02T16:28:48+03:00 CRIT (2): /images/layout/bg.png  Invalid controller specified (images)
2017-06-02T16:29:10+03:00 CRIT (2): /images/layout/bg.png  Invalid controller specified (images)
2017-06-02T16:29:55+03:00 CRIT (2): /images/layout/bg.png  Invalid controller specified (images)
2017-06-02T16:30:18+03:00 CRIT (2): /images/layout/bg.png  Invalid controller specified (images)
2017-06-02T16:31:30+03:00 CRIT (2): /images/layout/bg.png  Invalid controller specified (images)
2017-06-02T16:32:03+03:00 CRIT (2): /images/layout/bg.png  Invalid controller specified (images)
2017-06-02T16:32:28+03:00 CRIT (2): /images/layout/bg.png  Invalid controller specified (images)
2017-06-02T16:32:42+03:00 CRIT (2): /images/layout/bg.png  Invalid controller specified (images)
2017-06-02T16:33:32+03:00 CRIT (2): /images/layout/bg.png  Invalid controller specified (images)
2017-06-02T16:36:10+03:00 CRIT (2): /images/layout/bg.png  Invalid controller specified (images)
2017-06-02T16:36:12+03:00 CRIT (2): /images/layout/bg.png  Invalid controller specified (images)
2017-06-02T16:36:13+03:00 CRIT (2): /images/layout/bg.png  Invalid controller specified (images)
2017-06-02T16:36:28+03:00 CRIT (2): /images/layout/bg.png  Invalid controller specified (images)
2017-06-02T16:36:38+03:00 CRIT (2): /images/layout/bg.png  Invalid controller specified (images)
2017-06-02T16:37:54+03:00 CRIT (2): /images/layout/bg.png  Invalid controller specified (images)
2017-06-02T16:38:50+03:00 CRIT (2): /images/layout/bg.png  Invalid controller specified (images)
2017-06-02T16:38:55+03:00 CRIT (2): /images/layout/bg.png  Invalid controller specified (images)
2017-06-02T16:40:18+03:00 CRIT (2): /images/layout/bg.png  Invalid controller specified (images)
2017-06-02T16:40:31+03:00 CRIT (2): /images/layout/bg.png  Invalid controller specified (images)
2017-06-02T16:42:15+03:00 CRIT (2): /images/layout/bg.png  Invalid controller specified (images)
2017-06-02T16:43:06+03:00 CRIT (2): /images/layout/bg.png  Invalid controller specified (images)
2017-06-02T16:43:20+03:00 CRIT (2): /images/layout/bg.png  Invalid controller specified (images)
2017-06-02T16:43:26+03:00 CRIT (2): /images/layout/bg.png  Invalid controller specified (images)
2017-06-02T16:43:44+03:00 CRIT (2): /images/layout/bg.png  Invalid controller specified (images)
2017-06-02T16:43:57+03:00 CRIT (2): /images/layout/bg.png  Invalid controller specified (images)
2017-06-02T16:45:30+03:00 CRIT (2): /images/layout/bg.png  Invalid controller specified (images)
2017-06-02T16:47:44+03:00 CRIT (2): /images/layout/bg.png  Invalid controller specified (images)
2017-06-02T16:48:57+03:00 CRIT (2): /images/layout/bg.png  Invalid controller specified (images)
2017-06-02T16:49:07+03:00 CRIT (2): /images/layout/bg.png  Invalid controller specified (images)
2017-06-02T16:49:53+03:00 CRIT (2): /images/layout/bg.png  Invalid controller specified (images)
2017-06-02T16:50:02+03:00 CRIT (2): /images/layout/bg.png  Invalid controller specified (images)
2017-06-02T16:50:45+03:00 CRIT (2): /images/layout/bg.png  Invalid controller specified (images)
2017-06-02T16:53:23+03:00 CRIT (2): /images/layout/bg.png  Invalid controller specified (images)
2017-06-02T16:53:53+03:00 CRIT (2): /images/layout/bg.png  Invalid controller specified (images)
2017-06-02T16:54:02+03:00 CRIT (2): /images/layout/bg.png  Invalid controller specified (images)
2017-06-02T16:54:25+03:00 CRIT (2): /images/layout/bg.png  Invalid controller specified (images)
2017-06-02T16:59:20+03:00 CRIT (2): /images/layout/bg.png  Invalid controller specified (images)
2017-06-02T16:59:32+03:00 CRIT (2): /images/layout/bg.png  Invalid controller specified (images)
2017-06-02T16:59:35+03:00 CRIT (2): /images/layout/bg.png  Invalid controller specified (images)
2017-06-02T17:00:05+03:00 CRIT (2): /images/layout/bg.png  Invalid controller specified (images)
2017-06-02T17:02:13+03:00 CRIT (2): /images/layout/bg.png  Invalid controller specified (images)
2017-06-02T17:02:36+03:00 CRIT (2): /images/layout/bg.png  Invalid controller specified (images)
2017-06-02T17:02:56+03:00 CRIT (2): /images/layout/bg.png  Invalid controller specified (images)
2017-06-02T17:03:28+03:00 CRIT (2): /images/layout/bg.png  Invalid controller specified (images)
2017-06-02T17:03:37+03:00 CRIT (2): /images/layout/bg.png  Invalid controller specified (images)
2017-06-02T17:05:44+03:00 CRIT (2): /images/layout/bg.png  Invalid controller specified (images)
2017-06-02T17:05:48+03:00 CRIT (2): /images/layout/bg.png  Invalid controller specified (images)
2017-06-02T17:06:20+03:00 CRIT (2): /images/layout/bg.png  Invalid controller specified (images)
2017-06-02T17:09:18+03:00 CRIT (2): /images/layout/bg.png  Invalid controller specified (images)
2017-06-02T17:10:44+03:00 CRIT (2): /images/layout/bg.png  Invalid controller specified (images)
2017-06-02T17:11:08+03:00 CRIT (2): /images/layout/bg.png  Invalid controller specified (images)
2017-06-02T17:11:22+03:00 CRIT (2): /images/layout/bg.png  Invalid controller specified (images)
2017-06-02T17:12:24+03:00 CRIT (2): /images/layout/bg.png  Invalid controller specified (images)
2017-06-02T17:12:27+03:00 CRIT (2): /images/layout/bg.png  Invalid controller specified (images)
2017-06-02T17:12:58+03:00 CRIT (2): /images/layout/bg.png  Invalid controller specified (images)
2017-06-02T17:13:06+03:00 CRIT (2): /images/layout/bg.png  Invalid controller specified (images)
2017-06-02T17:14:00+03:00 CRIT (2): /images/layout/bg.png  Invalid controller specified (images)
2017-06-02T17:14:13+03:00 CRIT (2): /images/layout/bg.png  Invalid controller specified (images)
2017-06-02T17:14:15+03:00 CRIT (2): /images/layout/bg.png  Invalid controller specified (images)
2017-06-02T17:16:07+03:00 CRIT (2): /images/layout/bg.png  Invalid controller specified (images)
2017-06-02T17:16:41+03:00 CRIT (2): /images/layout/bg.png  Invalid controller specified (images)
2017-06-02T17:19:17+03:00 CRIT (2): /images/layout/bg.png  Invalid controller specified (images)
2017-06-02T17:19:28+03:00 CRIT (2): /images/layout/bg.png  Invalid controller specified (images)
2017-06-02T17:19:52+03:00 CRIT (2): /images/layout/bg.png  Invalid controller specified (images)
2017-06-02T17:20:03+03:00 CRIT (2): /images/layout/bg.png  Invalid controller specified (images)
2017-06-02T17:20:12+03:00 CRIT (2): /images/layout/bg.png  Invalid controller specified (images)
2017-06-02T17:20:15+03:00 CRIT (2): /images/layout/bg.png  Invalid controller specified (images)
2017-06-02T17:20:27+03:00 CRIT (2): /images/layout/bg.png  Invalid controller specified (images)
2017-06-02T17:20:35+03:00 CRIT (2): /images/layout/bg.png  Invalid controller specified (images)
2017-06-02T17:20:40+03:00 CRIT (2): /images/layout/bg.png  Invalid controller specified (images)
2017-06-02T17:20:51+03:00 CRIT (2): /images/layout/bg.png  Invalid controller specified (images)
2017-06-02T17:22:04+03:00 CRIT (2): /images/layout/bg.png  Invalid controller specified (images)
2017-06-02T17:22:24+03:00 CRIT (2): /images/layout/bg.png  Invalid controller specified (images)
2017-06-02T17:22:33+03:00 CRIT (2): /images/layout/bg.png  Invalid controller specified (images)
2017-06-02T17:22:33+03:00 CRIT (2): /images/layout/bg.png  Invalid controller specified (images)
2017-06-02T17:22:35+03:00 CRIT (2): /images/layout/bg.png  Invalid controller specified (images)
2017-06-02T17:22:43+03:00 CRIT (2): /images/layout/bg.png  Invalid controller specified (images)
2017-06-02T17:23:34+03:00 CRIT (2): /images/layout/bg.png  Invalid controller specified (images)
2017-06-02T17:24:21+03:00 CRIT (2): /images/layout/bg.png  Invalid controller specified (images)
2017-06-02T17:24:37+03:00 CRIT (2): /images/layout/bg.png  Invalid controller specified (images)
2017-06-02T17:24:47+03:00 CRIT (2): /images/layout/bg.png  Invalid controller specified (images)
2017-06-02T17:24:54+03:00 CRIT (2): /images/layout/bg.png  Invalid controller specified (images)
2017-06-02T17:24:55+03:00 CRIT (2): /images/layout/bg.png  Invalid controller specified (images)
2017-06-02T17:25:02+03:00 CRIT (2): /images/layout/bg.png  Invalid controller specified (images)
2017-06-02T17:35:07+03:00 CRIT (2): /images/layout/bg.png  Invalid controller specified (images)
2017-06-02T17:35:07+03:00 CRIT (2): /images/layout/bg.png  Invalid controller specified (images)
2017-06-02T17:35:25+03:00 CRIT (2): /images/layout/bg.png  Invalid controller specified (images)
2017-06-02T17:35:32+03:00 CRIT (2): /images/layout/bg.png  Invalid controller specified (images)
2017-06-02T17:35:33+03:00 CRIT (2): /images/layout/bg.png  Invalid controller specified (images)
2017-06-02T17:36:22+03:00 CRIT (2): /images/layout/bg.png  Invalid controller specified (images)
2017-06-02T17:36:58+03:00 CRIT (2): /images/layout/bg.png  Invalid controller specified (images)
2017-06-02T17:37:20+03:00 CRIT (2): /images/layout/bg.png  Invalid controller specified (images)
2017-06-02T17:37:21+03:00 CRIT (2): /images/layout/bg.png  Invalid controller specified (images)
2017-06-02T17:38:40+03:00 CRIT (2): /images/layout/bg.png  Invalid controller specified (images)
2017-06-02T17:38:46+03:00 CRIT (2): /images/layout/bg.png  Invalid controller specified (images)
2017-06-02T17:38:55+03:00 CRIT (2): /images/layout/bg.png  Invalid controller specified (images)
2017-06-02T17:38:59+03:00 CRIT (2): /images/layout/bg.png  Invalid controller specified (images)
2017-06-06T09:03:12+03:00 CRIT (2): /images/layout/bg.png  Invalid controller specified (images)
2017-06-06T09:05:26+03:00 CRIT (2): /images/layout/bg.png  Invalid controller specified (images)
2017-06-06T16:11:03+03:00 CRIT (2): /images/layout/bg.png  Invalid controller specified (images)
2017-06-06T16:11:07+03:00 CRIT (2): /images/layout/bg.png  Invalid controller specified (images)
2017-06-06T16:14:40+03:00 CRIT (2): /images/layout/bg.png  Invalid controller specified (images)
2017-06-06T16:14:50+03:00 CRIT (2): /images/layout/bg.png  Invalid controller specified (images)
2017-06-06T16:15:04+03:00 CRIT (2): /images/layout/bg.png  Invalid controller specified (images)
2017-06-06T16:15:06+03:00 CRIT (2): /images/layout/bg.png  Invalid controller specified (images)
2017-06-06T16:15:42+03:00 CRIT (2): /images/layout/bg.png  Invalid controller specified (images)
2017-06-06T16:16:18+03:00 CRIT (2): /images/layout/bg.png  Invalid controller specified (images)
2017-06-06T16:18:21+03:00 CRIT (2): /images/layout/bg.png  Invalid controller specified (images)
2017-06-06T16:18:48+03:00 CRIT (2): /images/layout/bg.png  Invalid controller specified (images)
2017-06-06T16:18:56+03:00 CRIT (2): /images/layout/bg.png  Invalid controller specified (images)
2017-06-06T16:19:00+03:00 CRIT (2): /images/layout/bg.png  Invalid controller specified (images)
2017-06-06T16:19:15+03:00 CRIT (2): /images/layout/bg.png  Invalid controller specified (images)
2017-06-06T16:20:30+03:00 CRIT (2): /images/layout/bg.png  Invalid controller specified (images)
2017-06-06T16:20:49+03:00 CRIT (2): /images/layout/bg.png  Invalid controller specified (images)
2017-06-06T16:22:51+03:00 CRIT (2): /images/layout/bg.png  Invalid controller specified (images)
2017-06-06T16:22:54+03:00 CRIT (2): /images/layout/bg.png  Invalid controller specified (images)
2017-06-06T16:23:39+03:00 CRIT (2): /images/layout/bg.png  Invalid controller specified (images)
2017-06-06T16:23:53+03:00 CRIT (2): /images/layout/bg.png  Invalid controller specified (images)
2017-06-06T16:24:28+03:00 CRIT (2): /images/layout/bg.png  Invalid controller specified (images)
2017-06-06T16:27:07+03:00 CRIT (2): /images/layout/bg.png  Invalid controller specified (images)
2017-06-06T16:27:15+03:00 CRIT (2): /images/layout/bg.png  Invalid controller specified (images)
2017-06-06T16:28:06+03:00 CRIT (2): /images/layout/bg.png  Invalid controller specified (images)
2017-06-06T16:28:39+03:00 CRIT (2): /images/layout/bg.png  Invalid controller specified (images)
2017-06-06T16:28:59+03:00 CRIT (2): /images/layout/bg.png  Invalid controller specified (images)
2017-06-06T16:29:21+03:00 CRIT (2): /images/layout/bg.png  Invalid controller specified (images)
2017-06-06T16:29:22+03:00 CRIT (2): /images/layout/bg.png  Invalid controller specified (images)
2017-06-06T16:29:27+03:00 CRIT (2): /images/layout/bg.png  Invalid controller specified (images)
2017-06-06T16:31:12+03:00 CRIT (2): /images/layout/bg.png  Invalid controller specified (images)
2017-06-06T16:31:45+03:00 CRIT (2): /images/layout/bg.png  Invalid controller specified (images)
2017-06-06T16:33:00+03:00 CRIT (2): /images/layout/bg.png  Invalid controller specified (images)
2017-06-06T16:35:26+03:00 CRIT (2): /images/layout/bg.png  Invalid controller specified (images)
2017-06-06T16:35:27+03:00 CRIT (2): /images/layout/bg.png  Invalid controller specified (images)
2017-06-06T17:32:27+03:00 CRIT (2): /images/layout/bg.png  Invalid controller specified (images)
2017-06-06T17:32:44+03:00 CRIT (2): /images/layout/bg.png  Invalid controller specified (images)
2017-06-07T09:07:46+03:00 CRIT (2): /images/layout/bg.png  Invalid controller specified (images)
2017-06-07T12:37:25+03:00 CRIT (2): /images/layout/bg.png  Invalid controller specified (images)
2017-06-07T12:38:39+03:00 CRIT (2): /images/layout/bg.png  Invalid controller specified (images)
2017-06-07T12:39:00+03:00 CRIT (2): /images/layout/bg.png  Invalid controller specified (images)
2017-06-07T15:49:24+03:00 CRIT (2): /images/layout/bg.png  Invalid controller specified (images)
2017-06-07T15:49:32+03:00 CRIT (2): /images/layout/bg.png  Invalid controller specified (images)
2017-06-07T15:49:35+03:00 CRIT (2): /images/layout/bg.png  Invalid controller specified (images)
2017-06-07T15:50:41+03:00 CRIT (2): /images/layout/bg.png  Invalid controller specified (images)
2017-06-07T15:51:05+03:00 CRIT (2): /images/layout/bg.png  Invalid controller specified (images)
2017-06-07T15:52:09+03:00 CRIT (2): /images/layout/bg.png  Invalid controller specified (images)
2017-06-07T15:52:18+03:00 CRIT (2): /images/layout/bg.png  Invalid controller specified (images)
2017-06-07T15:52:52+03:00 CRIT (2): /images/layout/bg.png  Invalid controller specified (images)
2017-06-07T15:53:13+03:00 CRIT (2): /images/layout/bg.png  Invalid controller specified (images)
2017-06-07T15:53:46+03:00 CRIT (2): /images/layout/bg.png  Invalid controller specified (images)
2017-06-07T15:59:48+03:00 CRIT (2): /images/layout/bg.png  Invalid controller specified (images)
2017-06-07T16:00:12+03:00 CRIT (2): /images/layout/bg.png  Invalid controller specified (images)
2017-06-07T16:03:50+03:00 CRIT (2): /images/layout/bg.png  Invalid controller specified (images)
2017-06-07T16:03:54+03:00 CRIT (2): /images/layout/bg.png  Invalid controller specified (images)
2017-06-07T16:05:30+03:00 CRIT (2): /images/layout/bg.png  Invalid controller specified (images)
2017-06-07T16:07:34+03:00 CRIT (2): /images/layout/bg.png  Invalid controller specified (images)
2017-06-07T16:07:54+03:00 CRIT (2): /images/layout/bg.png  Invalid controller specified (images)
2017-06-07T16:14:19+03:00 CRIT (2): /images/layout/bg.png  Invalid controller specified (images)
2017-06-07T16:14:20+03:00 CRIT (2): /images/layout/bg.png  Invalid controller specified (images)
2017-06-07T16:15:19+03:00 CRIT (2): /images/layout/bg.png  Invalid controller specified (images)
2017-06-07T16:15:22+03:00 CRIT (2): /images/layout/bg.png  Invalid controller specified (images)
2017-06-07T16:16:26+03:00 CRIT (2): /images/layout/bg.png  Invalid controller specified (images)
2017-06-07T16:20:16+03:00 CRIT (2): /images/layout/bg.png  Invalid controller specified (images)
2017-06-07T16:21:18+03:00 CRIT (2): /images/layout/bg.png  Invalid controller specified (images)
2017-06-07T16:21:37+03:00 CRIT (2): /images/layout/bg.png  Invalid controller specified (images)
2017-06-07T16:22:05+03:00 CRIT (2): /images/layout/bg.png  Invalid controller specified (images)
2017-06-07T16:22:09+03:00 CRIT (2): /images/layout/bg.png  Invalid controller specified (images)
2017-06-07T17:04:14+03:00 CRIT (2): /images/layout/bg.png  Invalid controller specified (images)
2017-06-07T17:04:20+03:00 CRIT (2): /images/layout/bg.png  Invalid controller specified (images)
2017-06-07T17:12:00+03:00 CRIT (2): /images/layout/bg.png  Invalid controller specified (images)
2017-06-07T17:18:28+03:00 CRIT (2): /images/layout/bg.png  Invalid controller specified (images)
2017-06-07T17:19:43+03:00 CRIT (2): /images/layout/bg.png  Invalid controller specified (images)
2017-06-07T17:19:44+03:00 CRIT (2): /images/layout/bg.png  Invalid controller specified (images)
2017-06-07T17:20:53+03:00 CRIT (2): /images/layout/bg.png  Invalid controller specified (images)
2017-06-07T17:22:22+03:00 CRIT (2): /images/layout/bg.png  Invalid controller specified (images)
2017-06-07T17:23:44+03:00 CRIT (2): /images/layout/bg.png  Invalid controller specified (images)
2017-06-07T17:28:49+03:00 CRIT (2): /images/layout/bg.png  Invalid controller specified (images)
2017-06-07T17:30:03+03:00 CRIT (2): /images/layout/bg.png  Invalid controller specified (images)
2017-06-07T17:30:04+03:00 CRIT (2): /images/layout/bg.png  Invalid controller specified (images)
2017-06-07T17:31:11+03:00 CRIT (2): /images/layout/bg.png  Invalid controller specified (images)
2017-06-07T17:31:20+03:00 CRIT (2): /images/layout/bg.png  Invalid controller specified (images)
2017-06-07T17:32:52+03:00 CRIT (2): /images/layout/bg.png  Invalid controller specified (images)
2017-06-07T17:33:33+03:00 CRIT (2): /images/layout/bg.png  Invalid controller specified (images)
2017-06-07T17:35:19+03:00 CRIT (2): /images/layout/bg.png  Invalid controller specified (images)
2017-06-07T17:35:45+03:00 CRIT (2): /images/layout/bg.png  Invalid controller specified (images)
2017-06-07T17:41:24+03:00 CRIT (2): /images/layout/bg.png  Invalid controller specified (images)
2017-06-07T17:41:34+03:00 CRIT (2): /images/layout/close.svg  Invalid controller specified (images)
2017-06-07T17:41:42+03:00 CRIT (2): /images/layout/close.svg  Invalid controller specified (images)
2017-06-07T17:41:42+03:00 CRIT (2): /images/layout/close.svg  Invalid controller specified (images)
2017-06-07T17:42:03+03:00 CRIT (2): /images/layout/bg.png  Invalid controller specified (images)
2017-06-07T17:43:03+03:00 CRIT (2): /images/layout/bg.png  Invalid controller specified (images)
2017-06-07T17:43:26+03:00 CRIT (2): /images/layout/bg.png  Invalid controller specified (images)
2017-06-07T17:46:31+03:00 CRIT (2): /images/layout/bg.png  Invalid controller specified (images)
2017-06-07T17:46:42+03:00 CRIT (2): /images/layout/bg.png  Invalid controller specified (images)
2017-06-07T17:48:58+03:00 CRIT (2): /images/layout/bg.png  Invalid controller specified (images)
2017-06-07T17:49:42+03:00 CRIT (2): /images/layout/bg.png  Invalid controller specified (images)
2017-06-12T16:53:58+03:00 CRIT (2): /images/layout/bg.png  Invalid controller specified (images)
2017-06-12T16:54:19+03:00 CRIT (2): /images/layout/bg.png  Invalid controller specified (images)
2017-06-12T16:54:53+03:00 CRIT (2): /images/layout/bg.png  Invalid controller specified (images)
2017-06-12T16:56:23+03:00 CRIT (2): /images/layout/bg.png  Invalid controller specified (images)
2017-06-12T16:58:41+03:00 CRIT (2): /images/layout/bg.png  Invalid controller specified (images)
2017-06-12T16:59:07+03:00 CRIT (2): /images/layout/bg.png  Invalid controller specified (images)
2017-06-12T16:59:14+03:00 CRIT (2): /images/layout/bg.png  Invalid controller specified (images)
2017-06-12T16:59:33+03:00 CRIT (2): /images/layout/bg.png  Invalid controller specified (images)
2017-06-12T16:59:54+03:00 CRIT (2): /images/layout/bg.png  Invalid controller specified (images)
2017-06-12T17:00:16+03:00 CRIT (2): /images/layout/bg.png  Invalid controller specified (images)
2017-06-15T16:05:24+03:00 CRIT (2): /images/layout/bg.png  Invalid controller specified (images)
2017-06-15T18:03:46+03:00 CRIT (2): /images/layout/bg.png  Invalid controller specified (images)
2017-06-15T18:04:53+03:00 CRIT (2): /images/layout/bg.png  Invalid controller specified (images)
2017-06-15T18:05:10+03:00 CRIT (2): /images/layout/bg.png  Invalid controller specified (images)
2017-06-17T19:22:26+00:00 CRIT (2): /images/layout/bg.png  Invalid controller specified (images)
2017-06-17T19:23:14+00:00 CRIT (2): /images/layout/bg.png  Invalid controller specified (images)
2017-06-17T19:23:17+00:00 CRIT (2): /images/layout/bg.png  Invalid controller specified (images)
2017-06-17T19:23:19+00:00 CRIT (2): /images/layout/bg.png  Invalid controller specified (images)
2017-06-17T19:23:40+00:00 CRIT (2): /images/layout/bg.png  Invalid controller specified (images)
2017-06-17T19:23:59+00:00 CRIT (2): /images/layout/bg.png  Invalid controller specified (images)
2017-06-17T19:24:55+00:00 CRIT (2): /images/layout/bg.png  Invalid controller specified (images)
2017-06-17T19:25:35+00:00 CRIT (2): /images/layout/bg.png  Invalid controller specified (images)
2017-06-17T19:27:20+00:00 CRIT (2): /images/layout/bg.png  Invalid controller specified (images)
2017-06-17T19:27:22+00:00 CRIT (2): /images/layout/bg.png  Invalid controller specified (images)
2017-06-17T19:27:55+00:00 CRIT (2): /images/layout/bg.png  Invalid controller specified (images)
2017-06-17T19:27:55+00:00 CRIT (2): /images/layout/bg.png  Invalid controller specified (images)
2017-06-17T19:28:59+00:00 CRIT (2): /images/layout/bg.png  Invalid controller specified (images)
2017-06-17T19:32:56+00:00 CRIT (2): /images/layout/bg.png  Invalid controller specified (images)
2017-06-17T19:36:18+00:00 CRIT (2): /images/layout/bg.png  Invalid controller specified (images)
2017-06-17T19:36:32+00:00 CRIT (2): /images/layout/bg.png  Invalid controller specified (images)
2017-06-17T19:36:56+00:00 CRIT (2): /images/layout/bg.png  Invalid controller specified (images)
2017-06-17T19:37:34+00:00 CRIT (2): /images/layout/bg.png  Invalid controller specified (images)
2017-06-17T19:38:13+00:00 CRIT (2): /images/layout/bg.png  Invalid controller specified (images)
2017-06-17T19:38:29+00:00 CRIT (2): /images/layout/bg.png  Invalid controller specified (images)
2017-06-17T19:39:03+00:00 CRIT (2): /images/layout/bg.png  Invalid controller specified (images)
2017-06-17T19:40:25+00:00 CRIT (2): /images/layout/bg.png  Invalid controller specified (images)
2017-06-17T19:40:39+00:00 CRIT (2): /images/layout/bg.png  Invalid controller specified (images)
2017-06-17T19:41:19+00:00 CRIT (2): /images/layout/bg.png  Invalid controller specified (images)
2017-06-17T19:42:37+00:00 CRIT (2): /images/layout/bg.png  Invalid controller specified (images)
2017-06-17T19:42:44+00:00 CRIT (2): /images/layout/bg.png  Invalid controller specified (images)
2017-06-17T19:42:53+00:00 CRIT (2): /images/layout/bg.png  Invalid controller specified (images)
2017-06-19T09:30:23+03:00 CRIT (2): /images/layout/bg.png  Invalid controller specified (images)
2017-06-19T09:30:46+03:00 CRIT (2): /images/layout/bg.png  Invalid controller specified (images)
2017-06-19T10:26:23+03:00 CRIT (2): /images/layout/bg.png  Invalid controller specified (images)
2017-06-19T10:29:28+03:00 CRIT (2): /images/layout/bg.png  Invalid controller specified (images)
2017-06-19T10:29:48+03:00 CRIT (2): /images/layout/bg.png  Invalid controller specified (images)
2017-06-19T10:33:55+03:00 CRIT (2): /images/layout/bg.png  Invalid controller specified (images)
2017-06-19T10:37:46+03:00 CRIT (2): /images/layout/bg.png  Invalid controller specified (images)
2017-06-19T10:39:28+03:00 CRIT (2): /images/layout/bg.png  Invalid controller specified (images)
2017-06-19T10:39:35+03:00 CRIT (2): /images/layout/bg.png  Invalid controller specified (images)
2017-06-19T10:39:56+03:00 CRIT (2): /images/layout/bg.png  Invalid controller specified (images)
2017-06-19T10:40:35+03:00 CRIT (2): /images/layout/bg.png  Invalid controller specified (images)
2017-06-19T10:42:34+03:00 CRIT (2): /images/layout/bg.png  Invalid controller specified (images)
2017-06-19T10:46:56+03:00 CRIT (2): /images/layout/bg.png  Invalid controller specified (images)
2017-06-19T10:47:07+03:00 CRIT (2): /images/layout/bg.png  Invalid controller specified (images)
2017-06-19T10:48:18+03:00 CRIT (2): /images/layout/bg.png  Invalid controller specified (images)
2017-06-19T10:48:28+03:00 CRIT (2): /images/layout/bg.png  Invalid controller specified (images)
2017-06-19T10:48:56+03:00 CRIT (2): /images/layout/bg.png  Invalid controller specified (images)
2017-06-19T10:49:20+03:00 CRIT (2): /images/layout/bg.png  Invalid controller specified (images)
2017-06-19T10:49:27+03:00 CRIT (2): /images/layout/bg.png  Invalid controller specified (images)
2017-06-19T10:50:28+03:00 CRIT (2): /images/layout/bg.png  Invalid controller specified (images)
2017-06-19T10:54:08+03:00 CRIT (2): /images/layout/bg.png  Invalid controller specified (images)
2017-06-19T10:55:07+03:00 CRIT (2): /images/layout/bg.png  Invalid controller specified (images)
2017-06-19T10:59:58+03:00 CRIT (2): /images/layout/bg.png  Invalid controller specified (images)
2017-06-19T11:02:28+03:00 CRIT (2): /images/layout/bg.png  Invalid controller specified (images)
2017-06-19T11:02:44+03:00 CRIT (2): /images/layout/bg.png  Invalid controller specified (images)
2017-06-19T11:09:00+03:00 CRIT (2): /images/layout/bg.png  Invalid controller specified (images)
2017-06-19T11:12:17+03:00 CRIT (2): /images/layout/bg.png  Invalid controller specified (images)
2017-06-19T11:16:07+03:00 CRIT (2): /images/layout/bg.png  Invalid controller specified (images)
2017-06-19T11:18:51+03:00 CRIT (2): /images/layout/bg.png  Invalid controller specified (images)
2017-06-19T11:20:34+03:00 CRIT (2): /images/layout/bg.png  Invalid controller specified (images)
2017-06-19T11:25:11+03:00 CRIT (2): /images/layout/bg.png  Invalid controller specified (images)
2017-06-19T11:27:02+03:00 CRIT (2): /images/layout/bg.png  Invalid controller specified (images)
2017-06-19T11:28:27+03:00 CRIT (2): /images/layout/bg.png  Invalid controller specified (images)
2017-06-19T11:30:37+03:00 CRIT (2): /images/layout/bg.png  Invalid controller specified (images)
2017-06-19T11:30:58+03:00 CRIT (2): /images/layout/bg.png  Invalid controller specified (images)
2017-06-19T11:32:09+03:00 CRIT (2): /images/layout/bg.png  Invalid controller specified (images)
2017-06-19T11:34:56+03:00 CRIT (2): /images/layout/bg.png  Invalid controller specified (images)
2017-06-19T11:35:47+03:00 CRIT (2): /images/layout/bg.png  Invalid controller specified (images)
2017-06-19T11:57:08+03:00 CRIT (2): /images/layout/bg.png  Invalid controller specified (images)
2017-06-19T12:27:45+03:00 CRIT (2): /images/layout/bg.png  Invalid controller specified (images)
2017-06-19T12:32:00+03:00 CRIT (2): /images/layout/bg.png  Invalid controller specified (images)
2017-06-19T15:20:10+03:00 CRIT (2): /images/layout/bg.png  Invalid controller specified (images)
2017-06-19T15:27:00+03:00 CRIT (2): /images/layout/bg.png  Invalid controller specified (images)
2017-06-19T15:28:55+03:00 CRIT (2): /images/layout/bg.png  Invalid controller specified (images)
2017-06-19T15:29:45+03:00 CRIT (2): /images/layout/bg.png  Invalid controller specified (images)
2017-06-19T15:30:40+03:00 CRIT (2): /images/layout/bg.png  Invalid controller specified (images)
2017-06-19T15:33:18+03:00 CRIT (2): /images/layout/bg.png  Invalid controller specified (images)
2017-06-19T15:34:25+03:00 CRIT (2): /images/layout/bg.png  Invalid controller specified (images)
2017-06-19T15:35:22+03:00 CRIT (2): /images/layout/bg.png  Invalid controller specified (images)
2017-06-19T15:36:19+03:00 CRIT (2): /images/layout/bg.png  Invalid controller specified (images)
2017-06-19T15:37:43+03:00 CRIT (2): /images/layout/bg.png  Invalid controller specified (images)
2017-06-19T15:39:24+03:00 CRIT (2): /images/layout/bg.png  Invalid controller specified (images)
2017-06-19T15:40:09+03:00 CRIT (2): /images/layout/bg.png  Invalid controller specified (images)
2017-06-19T15:41:34+03:00 CRIT (2): /images/layout/bg.png  Invalid controller specified (images)
2017-06-19T16:00:25+03:00 CRIT (2): /images/layout/bg.png  Invalid controller specified (images)
2017-06-19T16:04:36+03:00 CRIT (2): /images/layout/bg.png  Invalid controller specified (images)
2017-06-19T16:06:21+03:00 CRIT (2): /images/layout/bg.png  Invalid controller specified (images)
2017-06-19T16:07:55+03:00 CRIT (2): /images/layout/bg.png  Invalid controller specified (images)
2017-06-19T16:13:36+03:00 CRIT (2): /images/layout/bg.png  Invalid controller specified (images)
2017-06-19T16:14:52+03:00 CRIT (2): /images/layout/bg.png  Invalid controller specified (images)
2017-06-19T16:15:36+03:00 CRIT (2): /images/layout/bg.png  Invalid controller specified (images)
2017-06-19T16:16:16+03:00 CRIT (2): /images/layout/bg.png  Invalid controller specified (images)
2017-06-19T16:16:42+03:00 CRIT (2): /images/layout/bg.png  Invalid controller specified (images)
2017-06-19T16:19:12+03:00 CRIT (2): /images/layout/bg.png  Invalid controller specified (images)
2017-06-19T16:20:19+03:00 CRIT (2): /images/layout/bg.png  Invalid controller specified (images)
2017-06-19T16:21:25+03:00 CRIT (2): /images/layout/bg.png  Invalid controller specified (images)
2017-06-19T16:24:06+03:00 CRIT (2): /images/layout/bg.png  Invalid controller specified (images)
2017-06-19T16:25:17+03:00 CRIT (2): /images/layout/bg.png  Invalid controller specified (images)
2017-06-19T16:28:05+03:00 CRIT (2): /images/layout/bg.png  Invalid controller specified (images)
2017-06-19T16:29:03+03:00 CRIT (2): /images/layout/bg.png  Invalid controller specified (images)
2017-06-19T16:32:09+03:00 CRIT (2): /images/layout/bg.png  Invalid controller specified (images)
2017-06-19T16:32:35+03:00 CRIT (2): /images/layout/bg.png  Invalid controller specified (images)
2017-06-19T16:32:53+03:00 CRIT (2): /images/layout/bg.png  Invalid controller specified (images)
2017-06-19T16:34:20+03:00 CRIT (2): /images/layout/bg.png  Invalid controller specified (images)
2017-06-19T16:37:08+03:00 CRIT (2): /images/layout/bg.png  Invalid controller specified (images)
2017-06-19T16:40:16+03:00 CRIT (2): /images/layout/bg.png  Invalid controller specified (images)
2017-06-19T16:42:14+03:00 CRIT (2): /images/layout/bg.png  Invalid controller specified (images)
2017-06-19T16:46:33+03:00 CRIT (2): /images/layout/bg.png  Invalid controller specified (images)
2017-06-19T16:46:50+03:00 CRIT (2): /images/layout/bg.png  Invalid controller specified (images)
2017-06-19T16:49:30+03:00 CRIT (2): /images/layout/bg.png  Invalid controller specified (images)
2017-06-19T16:50:25+03:00 CRIT (2): /images/layout/bg.png  Invalid controller specified (images)
2017-06-19T17:03:36+03:00 CRIT (2): /images/layout/bg.png  Invalid controller specified (images)
2017-06-19T17:04:00+03:00 CRIT (2): /images/layout/bg.png  Invalid controller specified (images)
2017-06-19T17:11:28+03:00 CRIT (2): /images/layout/bg.png  Invalid controller specified (images)
2017-06-19T17:11:40+03:00 CRIT (2): /images/layout/bg.png  Invalid controller specified (images)
2017-06-19T17:17:05+03:00 CRIT (2): /images/layout/bg.png  Invalid controller specified (images)
2017-06-19T17:23:29+03:00 CRIT (2): /images/layout/bg.png  Invalid controller specified (images)
2017-06-19T17:28:26+03:00 CRIT (2): /images/layout/bg.png  Invalid controller specified (images)
2017-06-19T17:30:24+03:00 CRIT (2): /images/layout/bg.png  Invalid controller specified (images)
2017-06-19T17:31:20+03:00 CRIT (2): /images/layout/bg.png  Invalid controller specified (images)
2017-06-20T14:25:22+03:00 CRIT (2): /images/layout/bg.png  Invalid controller specified (images)
2017-06-20T14:47:16+03:00 CRIT (2): /images/layout/bg.png  Invalid controller specified (images)
2017-06-20T14:47:22+03:00 CRIT (2): /images/layout/bg.png  Invalid controller specified (images)
2017-06-20T14:47:59+03:00 CRIT (2): /images/layout/bg.png  Invalid controller specified (images)
2017-06-20T14:50:10+03:00 CRIT (2): /images/layout/bg.png  Invalid controller specified (images)
2017-06-20T14:50:31+03:00 CRIT (2): /images/layout/bg.png  Invalid controller specified (images)
2017-06-20T14:50:40+03:00 CRIT (2): /images/layout/bg.png  Invalid controller specified (images)
2017-06-20T14:57:59+03:00 CRIT (2): /images/layout/bg.png  Invalid controller specified (images)
2017-06-20T16:29:01+03:00 CRIT (2): /images/layout/bg.png  Invalid controller specified (images)
2017-06-21T07:05:56+00:00 CRIT (2): /images/layout/bg.png  Invalid controller specified (images)
2017-06-21T07:15:07+00:00 CRIT (2): /images/layout/bg.png  Invalid controller specified (images)
2017-06-21T07:15:44+00:00 CRIT (2): /images/layout/bg.png  Invalid controller specified (images)
2017-06-21T07:16:21+00:00 CRIT (2): /images/layout/bg.png  Invalid controller specified (images)
2017-06-21T07:17:18+00:00 CRIT (2): /images/layout/bg.png  Invalid controller specified (images)
2017-06-21T07:17:48+00:00 CRIT (2): /images/layout/bg.png  Invalid controller specified (images)
2017-06-21T07:18:42+00:00 CRIT (2): /images/layout/bg.png  Invalid controller specified (images)
2017-06-21T07:21:40+00:00 CRIT (2): /images/layout/bg.png  Invalid controller specified (images)
2017-06-21T07:23:21+00:00 CRIT (2): /images/layout/bg.png  Invalid controller specified (images)
2017-06-21T07:29:05+00:00 CRIT (2): /images/layout/bg.png  Invalid controller specified (images)
2017-06-21T07:30:32+00:00 CRIT (2): /images/layout/bg.png  Invalid controller specified (images)
2017-06-21T07:30:36+00:00 CRIT (2): /images/layout/bg.png  Invalid controller specified (images)
2017-06-21T07:32:45+00:00 CRIT (2): /images/layout/bg.png  Invalid controller specified (images)
2017-06-21T12:20:58+03:00 CRIT (2): /images/layout/bg.png  Invalid controller specified (images)
2017-06-21T12:23:13+03:00 CRIT (2): /images/layout/bg.png  Invalid controller specified (images)
2017-06-21T12:29:23+03:00 CRIT (2): /images/layout/bg.png  Invalid controller specified (images)
2017-06-21T12:51:41+03:00 CRIT (2): /images/layout/bg.png  Invalid controller specified (images)
2017-06-21T12:55:35+03:00 CRIT (2): /images/layout/bg.png  Invalid controller specified (images)
2017-06-21T13:00:18+03:00 CRIT (2): /images/layout/bg.png  Invalid controller specified (images)
2017-06-21T13:15:22+03:00 CRIT (2): /images/layout/bg.png  Invalid controller specified (images)
2017-06-21T13:34:03+03:00 CRIT (2): /images/layout/bg.png  Invalid controller specified (images)
2017-06-21T16:10:36+03:00 CRIT (2): /images/layout/bg.png  Invalid controller specified (images)
2017-06-21T16:21:11+03:00 CRIT (2): /images/layout/bg.png  Invalid controller specified (images)
2017-06-21T16:22:30+03:00 CRIT (2): /images/layout/bg.png  Invalid controller specified (images)
2017-06-22T06:42:26+00:00 CRIT (2): /images/banner/1.jpg  Invalid controller specified (images)
2017-06-22T06:43:29+00:00 CRIT (2): /images/layout/bg.png  Invalid controller specified (images)
2017-06-22T06:46:09+00:00 CRIT (2): /images/banner/1.jpg  Invalid controller specified (images)
2017-06-22T06:46:09+00:00 CRIT (2): /images/banner/1.jpg  Invalid controller specified (images)
2017-06-22T06:46:14+00:00 CRIT (2): /images/layout/bg.png  Invalid controller specified (images)
2017-06-22T06:46:20+00:00 CRIT (2): /ru/shop-order/order-submitted?order_id=418&hash=8d3bd9a6630ccc  Could not read from mail.hamamshop.ru
2017-06-22T06:46:21+00:00 CRIT (2): /ru/shop-order/order-submitted?order_id=419&hash=8d7f65458b906c  File "Zend/Mail/Protocol/Smtp/Auth/1.php" does not exist or class "Zend_Mail_Protocol_Smtp_Auth_1" was not found in the file
2017-06-22T06:47:27+00:00 CRIT (2): /ru/shop-order/order-submitted?order_id=419&hash=8d7f65458b906c  File "Zend/Mail/Protocol/Smtp/Auth/1.php" does not exist or class "Zend_Mail_Protocol_Smtp_Auth_1" was not found in the file
2017-06-22T06:47:31+00:00 CRIT (2): /images/layout/bg.png  Invalid controller specified (images)
2017-06-22T06:50:39+00:00 CRIT (2): /ru/shop-order/order-submitted?order_id=420&hash=54dc387cd33b58  Could not read from mail.hamamshop.ru
2017-06-22T06:53:06+00:00 CRIT (2): /ru/shop-order/order-submitted?order_id=420&hash=54dc387cd33b58  Could not read from mail.hamamshop.ru
2017-06-22T07:02:50+00:00 CRIT (2): /images/banner/1.jpg  Invalid controller specified (images)
2017-06-22T07:02:50+00:00 CRIT (2): /images/banner/1.jpg  Invalid controller specified (images)
2017-06-22T07:02:59+00:00 CRIT (2): /images/layout/bg.png  Invalid controller specified (images)
2017-06-22T07:10:01+00:00 CRIT (2): /images/layout/bg.png  Invalid controller specified (images)
2017-06-22T07:17:34+00:00 CRIT (2): /  Unknown relation alias ShopModification
2017-06-22T07:18:17+00:00 CRIT (2): /  Unknown relation alias ShopModification
2017-06-22T07:18:26+00:00 CRIT (2): /  Unknown relation alias ShopModification
2017-06-22T07:19:11+00:00 CRIT (2): /images/banner/1.jpg  Invalid controller specified (images)
2017-06-22T07:19:11+00:00 CRIT (2): /images/banner/1.jpg  Invalid controller specified (images)
2017-06-22T07:19:20+00:00 CRIT (2): /images/banner/1.jpg  Invalid controller specified (images)
2017-06-22T07:19:20+00:00 CRIT (2): /images/banner/1.jpg  Invalid controller specified (images)
2017-06-22T07:20:33+00:00 CRIT (2): /images/banner/1.jpg  Invalid controller specified (images)
2017-06-22T07:20:34+00:00 CRIT (2): /images/banner/1.jpg  Invalid controller specified (images)
2017-06-22T07:20:41+00:00 CRIT (2): /images/banner/1.jpg  Invalid controller specified (images)
2017-06-22T07:20:41+00:00 CRIT (2): /images/banner/1.jpg  Invalid controller specified (images)
2017-06-22T07:20:42+00:00 CRIT (2): /images/banner/1.jpg  Invalid controller specified (images)
2017-06-22T07:20:43+00:00 CRIT (2): /images/banner/1.jpg  Invalid controller specified (images)
2017-06-22T07:20:44+00:00 CRIT (2): /images/banner/1.jpg  Invalid controller specified (images)
2017-06-22T07:20:45+00:00 CRIT (2): /images/banner/1.jpg  Invalid controller specified (images)
2017-06-22T07:20:45+00:00 CRIT (2): /images/banner/1.jpg  Invalid controller specified (images)
2017-06-22T07:20:46+00:00 CRIT (2): /images/banner/1.jpg  Invalid controller specified (images)
2017-06-22T07:20:47+00:00 CRIT (2): /images/banner/1.jpg  Invalid controller specified (images)
2017-06-22T07:20:47+00:00 CRIT (2): /images/banner/1.jpg  Invalid controller specified (images)
2017-06-22T07:20:48+00:00 CRIT (2): /images/layout/bg.png  Invalid controller specified (images)
2017-06-22T07:20:50+00:00 CRIT (2): /images/banner/1.jpg  Invalid controller specified (images)
2017-06-22T07:20:53+00:00 CRIT (2): /images/banner/1.jpg  Invalid controller specified (images)
2017-06-22T07:20:55+00:00 CRIT (2): /images/banner/1.jpg  Invalid controller specified (images)
2017-06-22T07:21:11+00:00 CRIT (2): /images/layout/bg.png  Invalid controller specified (images)
2017-07-25T12:55:27+00:00 CRIT (2): /images/banner/1.jpg  Invalid controller specified (images)
2017-07-25T12:55:27+00:00 CRIT (2): /images/banner/1.jpg  Invalid controller specified (images)
2017-07-25T12:55:52+00:00 CRIT (2): /images/layout/bg.png  Invalid controller specified (images)
